Animal Army brouwerij;Den Haag;https://www.biernet.nl/bier/brouwerijen/nederland/zuid-holland/den-haag/animal-army;
Bavaria;Lieshout;https://www.biernet.nl/bier/brouwerijen/nederland/noord-brabant/lieshout/bavaria;
Beerkompanie;Heerlen;https://www.biernet.nl/bier/brouwerijen/nederland/limburg/heerlen/beerkompanie;
Beerze Brouwerij;Vessem;https://www.biernet.nl/bier/brouwerijen/nederland/noord-brabant/vessem/beerze;
"Amsterdamse Stoombierbrouwerij ""De Bekeerde Suster""";Amsterdam;https://www.biernet.nl/bier/brouwerijen/nederland/noord-holland/amsterdam/bekeerde-suster-de;
Brouwerij De Beyerd;Breda;https://www.biernet.nl/bier/brouwerijen/nederland/noord-brabant/breda/beyerd-de;
Bierfabriek Almere;Almere;https://www.biernet.nl/bier/brouwerijen/nederland/flevoland/almere/bierfabriek-almere;
Bierfabriek Amsterdam;Amsterdam;https://www.biernet.nl/bier/brouwerijen/nederland/noord-holland/amsterdam/bierfabriek-amsterdam;
Bierfabriek Delft;Delft;https://www.biernet.nl/bier/brouwerijen/nederland/zuid-holland/delft/bierfabriek-delft;
Brouwerij Breugem;Zaandijk;https://www.biernet.nl/bier/brouwerijen/nederland/noord-holland/zaandijk/breugem;
Brouwerij De Roskam;Houten;https://www.biernet.nl/bier/brouwerijen/nederland/utrecht/houten/brouwerij-de-roskam;
Brouwhotel Parkzicht;Veendam;https://www.biernet.nl/bier/brouwerijen/nederland/groningen/veendam/brouwhotel-parkzicht;
Stadsbrouwerij Cambrinus;Zutphen;https://www.biernet.nl/bier/brouwerijen/nederland/gelderland/zutphen/cambrinus;
DAVO Bieren;Deventer;https://www.biernet.nl/bier/brouwerijen/nederland/overijssel/deventer/davo-bieren;
De Uddelaer;Uddel;https://www.biernet.nl/bier/brouwerijen/nederland/gelderland/uddel/de-uddelaer;
Eiland Brouwers Texel;De Koog;https://www.biernet.nl/bier/brouwerijen/nederland/noord-holland/de-koog/eiland-brouwers-texel;
Brouwerij Emelisse;Goes;https://www.biernet.nl/bier/brouwerijen/nederland/zeeland/goes/emelisse;
Gooische Bierbrouwerij;Hilversum;https://www.biernet.nl/bier/brouwerijen/nederland/noord-holland/hilversum/gooische;
Gulpener Brouwerij;Gulpen;https://www.biernet.nl/bier/brouwerijen/nederland/limburg/gulpen/gulpener;
Lunchroom Het Raadhuis Schipluiden;Schipluiden;https://www.biernet.nl/bier/brouwerijen/nederland/zuid-holland/schipluiden/het-raadhuis-schipluiden;
Homeland Brewery;Amsterdam;https://www.biernet.nl/bier/brouwerijen/nederland/noord-holland/amsterdam/homeland-brewery;
Brouwerij Hoop;Zaandijk;https://www.biernet.nl/bier/brouwerijen/nederland/noord-holland/zaandijk/hoop;
Stadsbrouwerij Jongens van de Wit;'s-Hertogenbosch;https://www.biernet.nl/bier/brouwerijen/nederland/noord-brabant/s-hertogenbosch/jongens-van-de-wit;
Jopen Waarderpolder;Haarlem;https://www.biernet.nl/bier/brouwerijen/nederland/noord-holland/haarlem/jopen-waarderpolder;
Jopen Brouwerij;Haarlem;https://www.biernet.nl/bier/brouwerijen/nederland/noord-holland/haarlem/jopenkerk;
Kaapse Brouwers;Rotterdam;https://www.biernet.nl/bier/brouwerijen/nederland/zuid-holland/rotterdam/kaapse-brouwers;
Brouwerij Heusden;Heusden;https://www.biernet.nl/bier/brouwerijen/nederland/noord-brabant/heusden/kareltje-heusden;
Brouwerij Kleiburg;Amsterdam;https://www.biernet.nl/bier/brouwerijen/nederland/noord-holland/amsterdam/kleiburg;
Stadsbrouwerij van Kollenburg;'s-Hertogenbosch;https://www.biernet.nl/bier/brouwerijen/nederland/noord-brabant/s-hertogenbosch/kollenburg-van;
Bierbrouwerij de Koningshoeven B.V.;Berkel-Enschot;https://www.biernet.nl/bier/brouwerijen/nederland/noord-brabant/berkel-enschot/koningshoeven-de;
Brouwerij 't Kuipertje;Heukelum;https://www.biernet.nl/bier/brouwerijen/nederland/gelderland/heukelum/kuipertje-t;
LAB-44;Zaandam;https://www.biernet.nl/bier/brouwerijen/nederland/noord-holland/zaandam/lab-44;
Brouwerij Martinus;Groningen;https://www.biernet.nl/bier/brouwerijen/nederland/groningen/groningen/martinus;
Brouwerij De Molen;Bodegraven;https://www.biernet.nl/bier/brouwerijen/nederland/zuid-holland/bodegraven/molen-de;
Brouwerij Van Moll;Eindhoven;https://www.biernet.nl/bier/brouwerijen/nederland/noord-brabant/eindhoven/moll-van;
Mommeriete Brouwerij;Gramsbergen;https://www.biernet.nl/bier/brouwerijen/nederland/overijssel/gramsbergen/mommeriete;
Brouwerij Nijver;Geldrop;https://www.biernet.nl/bier/brouwerijen/nederland/noord-brabant/geldrop/nijver;
Brouwerij Noordt;Rotterdam;https://www.biernet.nl/bier/brouwerijen/nederland/zuid-holland/rotterdam/noordt;
Bierbrouwerij Oijen;Oijen;https://www.biernet.nl/bier/brouwerijen/nederland/noord-brabant/oijen/oijen;
Brouwerij Onder de Linden;Wageningen;https://www.biernet.nl/bier/brouwerijen/nederland/gelderland/wageningen/onder-de-linden;
Brouwerij Oproer;Utrecht;https://www.biernet.nl/bier/brouwerijen/nederland/utrecht/utrecht/oproer;
Stoombierbrouwerij Oudaen;Utrecht;https://www.biernet.nl/bier/brouwerijen/nederland/utrecht/utrecht/oudaen;
Stadsbrouwerij de Pelgrim;Rotterdam;https://www.biernet.nl/bier/brouwerijen/nederland/zuid-holland/rotterdam/pelgrim-de;
Poesiat & Kater;Amsterdam;https://www.biernet.nl/bier/brouwerijen/nederland/noord-holland/amsterdam/poesiat-en-kater;
Bierbrouwerij De Prael;Amsterdam;https://www.biernet.nl/bier/brouwerijen/nederland/noord-holland/amsterdam/prael-de;
Brouwerij de Prael Houthavens;Amsterdam;https://www.biernet.nl/bier/brouwerijen/nederland/noord-holland/amsterdam/prael-houthavens;
Brouwerij Rockin'Ludina;Groningen;https://www.biernet.nl/bier/brouwerijen/nederland/groningen/groningen/rockinludina;
Slot Oostende;Goes;https://www.biernet.nl/bier/brouwerijen/nederland/zeeland/goes/slot-oostende;
Stadsbrouwerij de Klep;Venlo;https://www.biernet.nl/bier/brouwerijen/nederland/limburg/venlo/stadsbrouwerij-de-klep;
Stadsbrouwerij Dukes;Gorinchem;https://www.biernet.nl/bier/brouwerijen/nederland/zuid-holland/gorinchem/stadsbrouwerij-dukes;
Stadsbrouwhuis Leiden;Leiden;https://www.biernet.nl/bier/brouwerijen/nederland/zuid-holland/leiden/stadsbrouwhuis-leiden;
Terschellinger Bieren;Baaiduinen;https://www.biernet.nl/bier/brouwerijen/nederland/friesland/baaiduinen/terschellinger-bieren;
Brouwerij Troost;Amsterdam;https://www.biernet.nl/bier/brouwerijen/nederland/noord-holland/amsterdam/troost;
Brouwerij Troost Oost;Amsterdam;https://www.biernet.nl/bier/brouwerijen/nederland/noord-holland/amsterdam/troost-oost;
Brouwerij Troost Westergas;Amsterdam;https://www.biernet.nl/bier/brouwerijen/nederland/noord-holland/amsterdam/troost-westergas;
Twentse Bierbrouwerij;Hengelo;https://www.biernet.nl/bier/brouwerijen/nederland/overijssel/hengelo/twentse;
Uiltje Brewing Company;Haarlem;https://www.biernet.nl/bier/brouwerijen/nederland/noord-holland/haarlem/uiltje-brewing-company;
Volksabdij Onze Lieve Vrouw ter Duinen;Ossendrecht;https://www.biernet.nl/bier/brouwerijen/nederland/noord-brabant/ossendrecht/volksabdij-onze-lieve-vrouw-ter-duinen;
Brouwerij Zuidt;Maastricht;https://www.biernet.nl/bier/brouwerijen/nederland/limburg/maastricht/zuidt;